A: 2841
B: 950
C: 2254
D: 960
E: 942
F: 195
G: 640
H: 944
I: 324
J: 80
K: 224
L: 942
M: 1623
N: 761
O: 768
P: 2472
Q: 37
R: 480
S: 1692
T: 1196
U: 135
V: 169
W: 86
X: 160
Y: 44
Z: 208
А: 1145
Б: 1599
В: 516
Г: 986
Д: 738
Е: 102
Ж: 391
З: 618
И: 337
Й: 3
К: 2184
Л: 679
М: 1240
Н: 451
О: 763
П: 1728
Р: 555
С: 1736
Т: 969
У: 241
Ф: 188
Х: 270
Ц: 218
Ч: 658
Ш: 267
Щ: 146
Э: 211
Ю: 133
Я: 207